…
## Table with Unicode

```
julia> pretty_table(data, display_size = (11,30))
┌────────┬────────┬────────┬──
│ Col. 1 │ Col. 2 │ Col. 3 │ ⋯
├────────┼────────┼────────┼──
│      1 │  false │    1.0 │ ⋯
│      2 │   true │    2.0 │ ⋯
│      3 │  false │    3.0 │ ⋯
│   ⋮    │   ⋮    │   ⋮    │ ⋱
└────────┴────────┴────────┴──
   1 column and 3 rows omitted
```
